module orion

go 1.13

require (
	github.com/gin-contrib/cors v1.3.0
	github.com/gin-gonic/contrib v0.0.0-20190923054218-35076c1b2bea
	github.com/gin-gonic/gin v1.5.0
	github.com/go-playground/universal-translator v0.17.0 // indirect
	github.com/go-sql-driver/mysql v1.4.1
	github.com/jinzhu/gorm v1.9.11
	github.com/jmoiron/sqlx v1.2.0
	github.com/json-iterator/go v1.1.8 // indirect
	github.com/leodido/go-urn v1.2.0 // indirect
	github.com/lib/pq v1.1.1
	github.com/mattn/go-isatty v0.0.10 // indirect
	golang.org/x/sys v0.0.0-20191128015809-6d18c012aee9 // indirect
	gopkg.in/go-playground/validator.v9 v9.30.2 // indirect
	gopkg.in/yaml.v2 v2.2.7
)
